^F:\DEN GAMES\BANG BANG\SOURCE\ANIMAL.CPP|F:\DEN GAMES\BANG BANG\SOURCE\ANIMATION.CPP|F:\DEN GAMES\BANG BANG\SOURCE\APPLICATION.CPP|F:\DEN GAMES\BANG BANG\SOURCE\COMMAND.CPP|F:\DEN GAMES\BANG BANG\SOURCE\ENTITY.CPP|F:\DEN GAMES\BANG BANG\SOURCE\GAMEHUD.CPP|F:\DEN GAMES\BANG BANG\SOURCE\GAMESTATE.CPP|F:\DEN GAMES\BANG BANG\SOURCE\GUI.CPP|F:\DEN GAMES\BANG BANG\SOURCE\LOADINGSTATE.CPP|F:\DEN GAMES\BANG BANG\SOURCE\MENUSTATE.CPP|F:\DEN GAMES\BANG BANG\SOURCE\MUSICPLAYER.CPP|F:\DEN GAMES\BANG BANG\SOURCE\OPPONENT.CPP|F:\DEN GAMES\BANG BANG\SOURCE\PARALLELTASK.CPP|F:\DEN GAMES\BANG BANG\SOURCE\PHYSICS.CPP|F:\DEN GAMES\BANG BANG\SOURCE\PLAYER.CPP|F:\DEN GAMES\BANG BANG\SOURCE\POWERUP.CPP|F:\DEN GAMES\BANG BANG\SOURCE\SCENENODE.CPP|F:\DEN GAMES\BANG BANG\SOURCE\SOUNDPLAYER.CPP|F:\DEN GAMES\BANG BANG\SOURCE\SOURCE.CPP|F:\DEN GAMES\BANG BANG\SOURCE\STATE.CPP|F:\DEN GAMES\BANG BANG\SOURCE\STATESTACK.CPP|F:\DEN GAMES\BANG BANG\SOURCE\TANK.CPP|F:\DEN GAMES\BANG BANG\SOURCE\TILE.CPP|F:\DEN GAMES\BANG BANG\SOURCE\TITLESTATE.CPP|F:\DEN GAMES\BANG BANG\SOURCE\USER.CPP|F:\DEN GAMES\BANG BANG\SOURCE\UTILITY.CPP|F:\DEN GAMES\BANG BANG\SOURCE\WORLD.CPP
F:\DEN GAMES\BANG BANG\DEBUG\VC120.PDB
F:\DEN GAMES\BANG BANG\DEBUG\VC120.IDB
F:\DEN GAMES\BANG BANG\DEBUG\GUI.OBJ
F:\DEN GAMES\BANG BANG\DEBUG\LOADINGSTATE.OBJ
F:\DEN GAMES\BANG BANG\DEBUG\MENUSTATE.OBJ
F:\DEN GAMES\BANG BANG\DEBUG\MUSICPLAYER.OBJ
F:\DEN GAMES\BANG BANG\DEBUG\PARALLELTASK.OBJ
F:\DEN GAMES\BANG BANG\DEBUG\PHYSICS.OBJ
F:\DEN GAMES\BANG BANG\DEBUG\SCENENODE.OBJ
F:\DEN GAMES\BANG BANG\DEBUG\SOUNDPLAYER.OBJ
F:\DEN GAMES\BANG BANG\DEBUG\STATE.OBJ
F:\DEN GAMES\BANG BANG\DEBUG\STATESTACK.OBJ
F:\DEN GAMES\BANG BANG\DEBUG\TITLESTATE.OBJ
F:\DEN GAMES\BANG BANG\DEBUG\USER.OBJ
F:\DEN GAMES\BANG BANG\DEBUG\UTILITY.OBJ
F:\DEN GAMES\BANG BANG\DEBUG\ANIMATION.OBJ
F:\DEN GAMES\BANG BANG\DEBUG\COMMAND.OBJ
F:\DEN GAMES\BANG BANG\DEBUG\ENTITY.OBJ
F:\DEN GAMES\BANG BANG\DEBUG\OPPONENT.OBJ
F:\DEN GAMES\BANG BANG\DEBUG\PLAYER.OBJ
F:\DEN GAMES\BANG BANG\DEBUG\POWERUP.OBJ
F:\DEN GAMES\BANG BANG\DEBUG\SOURCE.OBJ
F:\DEN GAMES\BANG BANG\DEBUG\TANK.OBJ
F:\DEN GAMES\BANG BANG\DEBUG\TILE.OBJ
F:\DEN GAMES\BANG BANG\DEBUG\WORLD.OBJ
F:\DEN GAMES\BANG BANG\DEBUG\ANIMAL.OBJ
F:\DEN GAMES\BANG BANG\DEBUG\APPLICATION.OBJ
F:\DEN GAMES\BANG BANG\DEBUG\GAMEHUD.OBJ
F:\DEN GAMES\BANG BANG\DEBUG\GAMESTATE.OBJ
^F:\DEN GAMES\BANG BANG\SOURCE\ANIMAL.CPP
F:\DEN GAMES\BANG BANG\DEBUG\VC120.PDB
F:\DEN GAMES\BANG BANG\DEBUG\VC120.IDB
^F:\DEN GAMES\BANG BANG\SOURCE\ANIMATION.CPP
F:\DEN GAMES\BANG BANG\DEBUG\VC120.PDB
^F:\DEN GAMES\BANG BANG\SOURCE\APPLICATION.CPP
F:\DEN GAMES\BANG BANG\DEBUG\VC120.PDB
F:\DEN GAMES\BANG BANG\DEBUG\VC120.IDB
^F:\DEN GAMES\BANG BANG\SOURCE\COMMAND.CPP
F:\DEN GAMES\BANG BANG\DEBUG\VC120.PDB
^F:\DEN GAMES\BANG BANG\SOURCE\ENTITY.CPP
F:\DEN GAMES\BANG BANG\DEBUG\VC120.PDB
F:\DEN GAMES\BANG BANG\DEBUG\VC120.IDB
F:\DEN GAMES\BANG BANG\DEBUG\ENTITY.OBJ
^F:\DEN GAMES\BANG BANG\SOURCE\GAMEHUD.CPP
F:\DEN GAMES\BANG BANG\DEBUG\VC120.PDB
F:\DEN GAMES\BANG BANG\DEBUG\VC120.IDB
^F:\DEN GAMES\BANG BANG\SOURCE\GAMESTATE.CPP
F:\DEN GAMES\BANG BANG\DEBUG\VC120.PDB
^F:\DEN GAMES\BANG BANG\SOURCE\GUI.CPP
F:\DEN GAMES\BANG BANG\DEBUG\VC120.PDB
F:\DEN GAMES\BANG BANG\DEBUG\VC120.IDB
F:\DEN GAMES\BANG BANG\DEBUG\GUI.OBJ
^F:\DEN GAMES\BANG BANG\SOURCE\LOADINGSTATE.CPP
F:\DEN GAMES\BANG BANG\DEBUG\VC120.PDB
^F:\DEN GAMES\BANG BANG\SOURCE\MENUSTATE.CPP
F:\DEN GAMES\BANG BANG\DEBUG\VC120.PDB
F:\DEN GAMES\BANG BANG\DEBUG\VC120.IDB
F:\DEN GAMES\BANG BANG\DEBUG\MENUSTATE.OBJ
^F:\DEN GAMES\BANG BANG\SOURCE\MUSICPLAYER.CPP
F:\DEN GAMES\BANG BANG\DEBUG\VC120.PDB
F:\DEN GAMES\BANG BANG\DEBUG\VC120.IDB
F:\DEN GAMES\BANG BANG\DEBUG\MUSICPLAYER.OBJ
^F:\DEN GAMES\BANG BANG\SOURCE\OPPONENT.CPP
F:\DEN GAMES\BANG BANG\DEBUG\VC120.PDB
F:\DEN GAMES\BANG BANG\DEBUG\VC120.IDB
^F:\DEN GAMES\BANG BANG\SOURCE\PARALLELTASK.CPP
F:\DEN GAMES\BANG BANG\DEBUG\VC120.PDB
^F:\DEN GAMES\BANG BANG\SOURCE\PHYSICS.CPP
F:\DEN GAMES\BANG BANG\DEBUG\VC120.PDB
F:\DEN GAMES\BANG BANG\DEBUG\VC120.IDB
^F:\DEN GAMES\BANG BANG\SOURCE\PLAYER.CPP
F:\DEN GAMES\BANG BANG\DEBUG\VC120.PDB
F:\DEN GAMES\BANG BANG\DEBUG\VC120.IDB
^F:\DEN GAMES\BANG BANG\SOURCE\POWERUP.CPP
F:\DEN GAMES\BANG BANG\DEBUG\VC120.PDB
F:\DEN GAMES\BANG BANG\DEBUG\VC120.IDB
^F:\DEN GAMES\BANG BANG\SOURCE\SCENENODE.CPP
F:\DEN GAMES\BANG BANG\DEBUG\VC120.PDB
^F:\DEN GAMES\BANG BANG\SOURCE\SOUNDPLAYER.CPP
F:\DEN GAMES\BANG BANG\DEBUG\VC120.PDB
^F:\DEN GAMES\BANG BANG\SOURCE\SOURCE.CPP
F:\DEN GAMES\BANG BANG\DEBUG\VC120.PDB
^F:\DEN GAMES\BANG BANG\SOURCE\STATE.CPP
F:\DEN GAMES\BANG BANG\DEBUG\VC120.PDB
^F:\DEN GAMES\BANG BANG\SOURCE\STATESTACK.CPP
F:\DEN GAMES\BANG BANG\DEBUG\VC120.PDB
^F:\DEN GAMES\BANG BANG\SOURCE\TANK.CPP
F:\DEN GAMES\BANG BANG\DEBUG\VC120.PDB
F:\DEN GAMES\BANG BANG\DEBUG\VC120.IDB
^F:\DEN GAMES\BANG BANG\SOURCE\TILE.CPP
F:\DEN GAMES\BANG BANG\DEBUG\VC120.PDB
F:\DEN GAMES\BANG BANG\DEBUG\VC120.IDB
F:\DEN GAMES\BANG BANG\DEBUG\TILE.OBJ
^F:\DEN GAMES\BANG BANG\SOURCE\TITLESTATE.CPP
F:\DEN GAMES\BANG BANG\DEBUG\VC120.PDB
^F:\DEN GAMES\BANG BANG\SOURCE\USER.CPP
F:\DEN GAMES\BANG BANG\DEBUG\VC120.PDB
^F:\DEN GAMES\BANG BANG\SOURCE\UTILITY.CPP
F:\DEN GAMES\BANG BANG\DEBUG\VC120.PDB
F:\DEN GAMES\BANG BANG\DEBUG\VC120.IDB
F:\DEN GAMES\BANG BANG\DEBUG\UTILITY.OBJ
^F:\DEN GAMES\BANG BANG\SOURCE\WORLD.CPP
F:\DEN GAMES\BANG BANG\DEBUG\VC120.PDB
F:\DEN GAMES\BANG BANG\DEBUG\VC120.IDB
^F:\DEN GAMES\BANG BANG\SOURCE\APPLICATION.CPP|F:\DEN GAMES\BANG BANG\SOURCE\GAMESTATE.CPP|F:\DEN GAMES\BANG BANG\SOURCE\PLAYER.CPP|F:\DEN GAMES\BANG BANG\SOURCE\SOURCE.CPP|F:\DEN GAMES\BANG BANG\SOURCE\WORLD.CPP
F:\DEN GAMES\BANG BANG\DEBUG\VC120.PDB
F:\DEN GAMES\BANG BANG\DEBUG\VC120.IDB
F:\DEN GAMES\BANG BANG\DEBUG\PLAYER.OBJ
F:\DEN GAMES\BANG BANG\DEBUG\WORLD.OBJ
F:\DEN GAMES\BANG BANG\DEBUG\APPLICATION.OBJ
F:\DEN GAMES\BANG BANG\DEBUG\SOURCE.OBJ
^F:\DEN GAMES\BANG BANG\SOURCE\GAMESTATE.CPP|F:\DEN GAMES\BANG BANG\SOURCE\PLAYER.CPP
F:\DEN GAMES\BANG BANG\DEBUG\VC120.PDB
F:\DEN GAMES\BANG BANG\DEBUG\VC120.IDB
F:\DEN GAMES\BANG BANG\DEBUG\PLAYER.OBJ
^F:\DEN GAMES\BANG BANG\SOURCE\ANIMAL.CPP|F:\DEN GAMES\BANG BANG\SOURCE\APPLICATION.CPP|F:\DEN GAMES\BANG BANG\SOURCE\ENTITY.CPP|F:\DEN GAMES\BANG BANG\SOURCE\GAMEHUD.CPP|F:\DEN GAMES\BANG BANG\SOURCE\GAMESTATE.CPP|F:\DEN GAMES\BANG BANG\SOURCE\GUI.CPP|F:\DEN GAMES\BANG BANG\SOURCE\LOADINGSTATE.CPP|F:\DEN GAMES\BANG BANG\SOURCE\MENUSTATE.CPP|F:\DEN GAMES\BANG BANG\SOURCE\OPPONENT.CPP|F:\DEN GAMES\BANG BANG\SOURCE\PLAYER.CPP|F:\DEN GAMES\BANG BANG\SOURCE\POWERUP.CPP|F:\DEN GAMES\BANG BANG\SOURCE\SCENENODE.CPP|F:\DEN GAMES\BANG BANG\SOURCE\SOURCE.CPP|F:\DEN GAMES\BANG BANG\SOURCE\TANK.CPP|F:\DEN GAMES\BANG BANG\SOURCE\TILE.CPP|F:\DEN GAMES\BANG BANG\SOURCE\UTILITY.CPP|F:\DEN GAMES\BANG BANG\SOURCE\WORLD.CPP
F:\DEN GAMES\BANG BANG\DEBUG\VC120.PDB
F:\DEN GAMES\BANG BANG\DEBUG\VC120.IDB
F:\DEN GAMES\BANG BANG\DEBUG\PLAYER.OBJ
F:\DEN GAMES\BANG BANG\DEBUG\ANIMAL.OBJ
F:\DEN GAMES\BANG BANG\DEBUG\SCENENODE.OBJ
F:\DEN GAMES\BANG BANG\DEBUG\WORLD.OBJ
F:\DEN GAMES\BANG BANG\DEBUG\APPLICATION.OBJ
F:\DEN GAMES\BANG BANG\DEBUG\GUI.OBJ
F:\DEN GAMES\BANG BANG\DEBUG\GAMEHUD.OBJ
F:\DEN GAMES\BANG BANG\DEBUG\GAMESTATE.OBJ
F:\DEN GAMES\BANG BANG\DEBUG\LOADINGSTATE.OBJ
F:\DEN GAMES\BANG BANG\DEBUG\MENUSTATE.OBJ
F:\DEN GAMES\BANG BANG\DEBUG\OPPONENT.OBJ
F:\DEN GAMES\BANG BANG\DEBUG\POWERUP.OBJ
F:\DEN GAMES\BANG BANG\DEBUG\SOURCE.OBJ
F:\DEN GAMES\BANG BANG\DEBUG\TANK.OBJ
F:\DEN GAMES\BANG BANG\DEBUG\TILE.OBJ
F:\DEN GAMES\BANG BANG\DEBUG\UTILITY.OBJ
^F:\DEN GAMES\BANG BANG\SOURCE\ANIMAL.CPP|F:\DEN GAMES\BANG BANG\SOURCE\APPLICATION.CPP|F:\DEN GAMES\BANG BANG\SOURCE\ENTITY.CPP|F:\DEN GAMES\BANG BANG\SOURCE\GAMEHUD.CPP|F:\DEN GAMES\BANG BANG\SOURCE\GAMESTATE.CPP|F:\DEN GAMES\BANG BANG\SOURCE\GUI.CPP|F:\DEN GAMES\BANG BANG\SOURCE\LOADINGSTATE.CPP|F:\DEN GAMES\BANG BANG\SOURCE\MENUSTATE.CPP|F:\DEN GAMES\BANG BANG\SOURCE\OPPONENT.CPP|F:\DEN GAMES\BANG BANG\SOURCE\PARALLELTASK.CPP|F:\DEN GAMES\BANG BANG\SOURCE\PLAYER.CPP|F:\DEN GAMES\BANG BANG\SOURCE\POWERUP.CPP|F:\DEN GAMES\BANG BANG\SOURCE\SCENENODE.CPP|F:\DEN GAMES\BANG BANG\SOURCE\SOURCE.CPP|F:\DEN GAMES\BANG BANG\SOURCE\STATE.CPP|F:\DEN GAMES\BANG BANG\SOURCE\STATESTACK.CPP|F:\DEN GAMES\BANG BANG\SOURCE\TANK.CPP|F:\DEN GAMES\BANG BANG\SOURCE\TILE.CPP|F:\DEN GAMES\BANG BANG\SOURCE\TITLESTATE.CPP|F:\DEN GAMES\BANG BANG\SOURCE\UTILITY.CPP|F:\DEN GAMES\BANG BANG\SOURCE\WORLD.CPP
F:\DEN GAMES\BANG BANG\DEBUG\VC120.PDB
F:\DEN GAMES\BANG BANG\DEBUG\VC120.IDB
F:\DEN GAMES\BANG BANG\DEBUG\PLAYER.OBJ
F:\DEN GAMES\BANG BANG\DEBUG\WORLD.OBJ
^F:\DEN GAMES\BANG BANG\SOURCE\APPLICATION.CPP|F:\DEN GAMES\BANG BANG\SOURCE\GAMESTATE.CPP|F:\DEN GAMES\BANG BANG\SOURCE\LOADINGSTATE.CPP|F:\DEN GAMES\BANG BANG\SOURCE\MENUSTATE.CPP|F:\DEN GAMES\BANG BANG\SOURCE\PARALLELTASK.CPP|F:\DEN GAMES\BANG BANG\SOURCE\SOURCE.CPP|F:\DEN GAMES\BANG BANG\SOURCE\STATE.CPP|F:\DEN GAMES\BANG BANG\SOURCE\STATESTACK.CPP|F:\DEN GAMES\BANG BANG\SOURCE\TITLESTATE.CPP
F:\DEN GAMES\BANG BANG\DEBUG\VC120.PDB
F:\DEN GAMES\BANG BANG\DEBUG\VC120.IDB
F:\DEN GAMES\BANG BANG\DEBUG\GAMESTATE.OBJ
F:\DEN GAMES\BANG BANG\DEBUG\LOADINGSTATE.OBJ
F:\DEN GAMES\BANG BANG\DEBUG\MENUSTATE.OBJ
F:\DEN GAMES\BANG BANG\DEBUG\PARALLELTASK.OBJ
F:\DEN GAMES\BANG BANG\DEBUG\SOURCE.OBJ
F:\DEN GAMES\BANG BANG\DEBUG\STATESTACK.OBJ
F:\DEN GAMES\BANG BANG\DEBUG\TITLESTATE.OBJ
^F:\DEN GAMES\BANG BANG\SOURCE\APPLICATION.CPP|F:\DEN GAMES\BANG BANG\SOURCE\STATE.CPP
F:\DEN GAMES\BANG BANG\DEBUG\VC120.PDB
F:\DEN GAMES\BANG BANG\DEBUG\VC120.IDB
F:\DEN GAMES\BANG BANG\DEBUG\STATE.OBJ
^F:\DEN GAMES\BANG BANG\SOURCE\APPLICATION.CPP|F:\DEN GAMES\BANG BANG\SOURCE\SOURCE.CPP
F:\DEN GAMES\BANG BANG\DEBUG\VC120.PDB
F:\DEN GAMES\BANG BANG\DEBUG\VC120.IDB
F:\DEN GAMES\BANG BANG\DEBUG\APPLICATION.OBJ
F:\DEN GAMES\BANG BANG\DEBUG\SOURCE.OBJ
^F:\DEN GAMES\BANG BANG\SOURCE\APPLICATION.CPP|F:\DEN GAMES\BANG BANG\SOURCE\GAMESTATE.CPP|F:\DEN GAMES\BANG BANG\SOURCE\SOURCE.CPP|F:\DEN GAMES\BANG BANG\SOURCE\WORLD.CPP
F:\DEN GAMES\BANG BANG\DEBUG\VC120.PDB
F:\DEN GAMES\BANG BANG\DEBUG\VC120.IDB
F:\DEN GAMES\BANG BANG\DEBUG\WORLD.OBJ
F:\DEN GAMES\BANG BANG\DEBUG\APPLICATION.OBJ
F:\DEN GAMES\BANG BANG\DEBUG\GAMESTATE.OBJ
F:\DEN GAMES\BANG BANG\DEBUG\SOURCE.OBJ
^F:\DEN GAMES\BANG BANG\SOURCE\ANIMAL.CPP|F:\DEN GAMES\BANG BANG\SOURCE\APPLICATION.CPP|F:\DEN GAMES\BANG BANG\SOURCE\GAMESTATE.CPP|F:\DEN GAMES\BANG BANG\SOURCE\PLAYER.CPP|F:\DEN GAMES\BANG BANG\SOURCE\POWERUP.CPP|F:\DEN GAMES\BANG BANG\SOURCE\SOURCE.CPP|F:\DEN GAMES\BANG BANG\SOURCE\TANK.CPP|F:\DEN GAMES\BANG BANG\SOURCE\TILE.CPP|F:\DEN GAMES\BANG BANG\SOURCE\WORLD.CPP
F:\DEN GAMES\BANG BANG\DEBUG\VC120.PDB
F:\DEN GAMES\BANG BANG\DEBUG\VC120.IDB
F:\DEN GAMES\BANG BANG\DEBUG\POWERUP.OBJ
F:\DEN GAMES\BANG BANG\DEBUG\TANK.OBJ
F:\DEN GAMES\BANG BANG\DEBUG\WORLD.OBJ
F:\DEN GAMES\BANG BANG\DEBUG\APPLICATION.OBJ
F:\DEN GAMES\BANG BANG\DEBUG\GAMESTATE.OBJ
F:\DEN GAMES\BANG BANG\DEBUG\PLAYER.OBJ
F:\DEN GAMES\BANG BANG\DEBUG\SOURCE.OBJ
^F:\DEN GAMES\BANG BANG\SOURCE\PLAYER.CPP|F:\DEN GAMES\BANG BANG\SOURCE\WORLD.CPP
F:\DEN GAMES\BANG BANG\DEBUG\VC120.PDB
F:\DEN GAMES\BANG BANG\DEBUG\VC120.IDB
F:\DEN GAMES\BANG BANG\DEBUG\PLAYER.OBJ
F:\DEN GAMES\BANG BANG\DEBUG\WORLD.OBJ
^F:\DEN GAMES\BANG BANG\SOURCE\PLAYER.CPP|F:\DEN GAMES\BANG BANG\SOURCE\POWERUP.CPP
F:\DEN GAMES\BANG BANG\DEBUG\VC120.PDB
F:\DEN GAMES\BANG BANG\DEBUG\VC120.IDB
F:\DEN GAMES\BANG BANG\DEBUG\PLAYER.OBJ
F:\DEN GAMES\BANG BANG\DEBUG\POWERUP.OBJ
^F:\DEN GAMES\BANG BANG\SOURCE\ANIMAL.CPP|F:\DEN GAMES\BANG BANG\SOURCE\APPLICATION.CPP|F:\DEN GAMES\BANG BANG\SOURCE\COMMAND.CPP|F:\DEN GAMES\BANG BANG\SOURCE\ENTITY.CPP|F:\DEN GAMES\BANG BANG\SOURCE\GAMEHUD.CPP|F:\DEN GAMES\BANG BANG\SOURCE\GAMESTATE.CPP|F:\DEN GAMES\BANG BANG\SOURCE\GUI.CPP|F:\DEN GAMES\BANG BANG\SOURCE\LOADINGSTATE.CPP|F:\DEN GAMES\BANG BANG\SOURCE\MENUSTATE.CPP|F:\DEN GAMES\BANG BANG\SOURCE\MUSICPLAYER.CPP|F:\DEN GAMES\BANG BANG\SOURCE\OPPONENT.CPP|F:\DEN GAMES\BANG BANG\SOURCE\PARALLELTASK.CPP|F:\DEN GAMES\BANG BANG\SOURCE\PLAYER.CPP|F:\DEN GAMES\BANG BANG\SOURCE\POWERUP.CPP|F:\DEN GAMES\BANG BANG\SOURCE\SCENENODE.CPP|F:\DEN GAMES\BANG BANG\SOURCE\SOUNDPLAYER.CPP|F:\DEN GAMES\BANG BANG\SOURCE\SOURCE.CPP|F:\DEN GAMES\BANG BANG\SOURCE\STATE.CPP|F:\DEN GAMES\BANG BANG\SOURCE\STATESTACK.CPP|F:\DEN GAMES\BANG BANG\SOURCE\TANK.CPP|F:\DEN GAMES\BANG BANG\SOURCE\TILE.CPP|F:\DEN GAMES\BANG BANG\SOURCE\TITLESTATE.CPP|F:\DEN GAMES\BANG BANG\SOURCE\UTILITY.CPP|F:\DEN GAMES\BANG BANG\SOURCE\WORLD.CPP
F:\DEN GAMES\BANG BANG\DEBUG\VC120.PDB
F:\DEN GAMES\BANG BANG\DEBUG\VC120.IDB
F:\DEN GAMES\BANG BANG\DEBUG\PLAYER.OBJ
F:\DEN GAMES\BANG BANG\DEBUG\APPLICATION.OBJ
F:\DEN GAMES\BANG BANG\DEBUG\COMMAND.OBJ
F:\DEN GAMES\BANG BANG\DEBUG\ENTITY.OBJ
F:\DEN GAMES\BANG BANG\DEBUG\GUI.OBJ
F:\DEN GAMES\BANG BANG\DEBUG\GAMEHUD.OBJ
F:\DEN GAMES\BANG BANG\DEBUG\GAMESTATE.OBJ
F:\DEN GAMES\BANG BANG\DEBUG\LOADINGSTATE.OBJ
F:\DEN GAMES\BANG BANG\DEBUG\MENUSTATE.OBJ
F:\DEN GAMES\BANG BANG\DEBUG\MUSICPLAYER.OBJ
F:\DEN GAMES\BANG BANG\DEBUG\OPPONENT.OBJ
F:\DEN GAMES\BANG BANG\DEBUG\PARALLELTASK.OBJ
F:\DEN GAMES\BANG BANG\DEBUG\SCENENODE.OBJ
F:\DEN GAMES\BANG BANG\DEBUG\SOUNDPLAYER.OBJ
F:\DEN GAMES\BANG BANG\DEBUG\SOURCE.OBJ
F:\DEN GAMES\BANG BANG\DEBUG\STATE.OBJ
F:\DEN GAMES\BANG BANG\DEBUG\STATESTACK.OBJ
F:\DEN GAMES\BANG BANG\DEBUG\TITLESTATE.OBJ
F:\DEN GAMES\BANG BANG\DEBUG\UTILITY.OBJ
F:\DEN GAMES\BANG BANG\DEBUG\TANK.OBJ
F:\DEN GAMES\BANG BANG\DEBUG\ANIMAL.OBJ
F:\DEN GAMES\BANG BANG\DEBUG\TILE.OBJ
F:\DEN GAMES\BANG BANG\DEBUG\POWERUP.OBJ
^F:\DEN GAMES\BANG BANG\SOURCE\APPLICATION.CPP|F:\DEN GAMES\BANG BANG\SOURCE\GAMESTATE.CPP|F:\DEN GAMES\BANG BANG\SOURCE\PLAYER.CPP|F:\DEN GAMES\BANG BANG\SOURCE\POWERUP.CPP|F:\DEN GAMES\BANG BANG\SOURCE\SOURCE.CPP|F:\DEN GAMES\BANG BANG\SOURCE\TANK.CPP|F:\DEN GAMES\BANG BANG\SOURCE\WORLD.CPP
F:\DEN GAMES\BANG BANG\DEBUG\VC120.PDB
F:\DEN GAMES\BANG BANG\DEBUG\VC120.IDB
F:\DEN GAMES\BANG BANG\DEBUG\PLAYER.OBJ
F:\DEN GAMES\BANG BANG\DEBUG\TANK.OBJ
F:\DEN GAMES\BANG BANG\DEBUG\APPLICATION.OBJ
F:\DEN GAMES\BANG BANG\DEBUG\GAMESTATE.OBJ
F:\DEN GAMES\BANG BANG\DEBUG\POWERUP.OBJ
F:\DEN GAMES\BANG BANG\DEBUG\SOURCE.OBJ
F:\DEN GAMES\BANG BANG\DEBUG\WORLD.OBJ
^F:\DEN GAMES\BANG BANG\SOURCE\ANIMAL.CPP|F:\DEN GAMES\BANG BANG\SOURCE\APPLICATION.CPP|F:\DEN GAMES\BANG BANG\SOURCE\GAMESTATE.CPP|F:\DEN GAMES\BANG BANG\SOURCE\OPPONENT.CPP|F:\DEN GAMES\BANG BANG\SOURCE\PLAYER.CPP|F:\DEN GAMES\BANG BANG\SOURCE\POWERUP.CPP|F:\DEN GAMES\BANG BANG\SOURCE\SOURCE.CPP|F:\DEN GAMES\BANG BANG\SOURCE\TANK.CPP|F:\DEN GAMES\BANG BANG\SOURCE\TILE.CPP|F:\DEN GAMES\BANG BANG\SOURCE\WORLD.CPP
F:\DEN GAMES\BANG BANG\DEBUG\VC120.PDB
F:\DEN GAMES\BANG BANG\DEBUG\VC120.IDB
F:\DEN GAMES\BANG BANG\DEBUG\OPPONENT.OBJ
F:\DEN GAMES\BANG BANG\DEBUG\APPLICATION.OBJ
F:\DEN GAMES\BANG BANG\DEBUG\GAMESTATE.OBJ
F:\DEN GAMES\BANG BANG\DEBUG\PLAYER.OBJ
F:\DEN GAMES\BANG BANG\DEBUG\POWERUP.OBJ
F:\DEN GAMES\BANG BANG\DEBUG\SOURCE.OBJ
F:\DEN GAMES\BANG BANG\DEBUG\TANK.OBJ
F:\DEN GAMES\BANG BANG\DEBUG\ANIMAL.OBJ
F:\DEN GAMES\BANG BANG\DEBUG\WORLD.OBJ
^F:\DEN GAMES\BANG BANG\SOURCE\OPPONENT.CPP|F:\DEN GAMES\BANG BANG\SOURCE\TILE.CPP
F:\DEN GAMES\BANG BANG\DEBUG\VC120.PDB
F:\DEN GAMES\BANG BANG\DEBUG\VC120.IDB
F:\DEN GAMES\BANG BANG\DEBUG\OPPONENT.OBJ
F:\DEN GAMES\BANG BANG\DEBUG\TILE.OBJ
^F:\DEN GAMES\BANG BANG\SOURCE\ANIMAL.CPP|F:\DEN GAMES\BANG BANG\SOURCE\WORLD.CPP
F:\DEN GAMES\BANG BANG\DEBUG\VC120.PDB
F:\DEN GAMES\BANG BANG\DEBUG\VC120.IDB
F:\DEN GAMES\BANG BANG\DEBUG\ANIMAL.OBJ
F:\DEN GAMES\BANG BANG\DEBUG\WORLD.OBJ
^F:\DEN GAMES\BANG BANG\SOURCE\ANIMAL.CPP|F:\DEN GAMES\BANG BANG\SOURCE\TILE.CPP
F:\DEN GAMES\BANG BANG\DEBUG\VC120.PDB
F:\DEN GAMES\BANG BANG\DEBUG\VC120.IDB
F:\DEN GAMES\BANG BANG\DEBUG\ANIMAL.OBJ
F:\DEN GAMES\BANG BANG\DEBUG\TILE.OBJ
^F:\DEN GAMES\BANG BANG\SOURCE\ANIMAL.CPP|F:\DEN GAMES\BANG BANG\SOURCE\APPLICATION.CPP
F:\DEN GAMES\BANG BANG\DEBUG\VC120.PDB
F:\DEN GAMES\BANG BANG\DEBUG\VC120.IDB
F:\DEN GAMES\BANG BANG\DEBUG\ANIMAL.OBJ
F:\DEN GAMES\BANG BANG\DEBUG\APPLICATION.OBJ
^F:\DEN GAMES\BANG BANG\SOURCE\ANIMAL.CPP|F:\DEN GAMES\BANG BANG\SOURCE\APPLICATION.CPP|F:\DEN GAMES\BANG BANG\SOURCE\GAMESTATE.CPP|F:\DEN GAMES\BANG BANG\SOURCE\OPPONENT.CPP|F:\DEN GAMES\BANG BANG\SOURCE\SOURCE.CPP|F:\DEN GAMES\BANG BANG\SOURCE\WORLD.CPP
F:\DEN GAMES\BANG BANG\DEBUG\VC120.PDB
F:\DEN GAMES\BANG BANG\DEBUG\VC120.IDB
F:\DEN GAMES\BANG BANG\DEBUG\ANIMAL.OBJ
F:\DEN GAMES\BANG BANG\DEBUG\APPLICATION.OBJ
F:\DEN GAMES\BANG BANG\DEBUG\GAMESTATE.OBJ
F:\DEN GAMES\BANG BANG\DEBUG\OPPONENT.OBJ
F:\DEN GAMES\BANG BANG\DEBUG\SOURCE.OBJ
F:\DEN GAMES\BANG BANG\DEBUG\WORLD.OBJ
^F:\DEN GAMES\BANG BANG\SOURCE\ANIMAL.CPP|F:\DEN GAMES\BANG BANG\SOURCE\TANK.CPP
F:\DEN GAMES\BANG BANG\DEBUG\VC120.PDB
F:\DEN GAMES\BANG BANG\DEBUG\VC120.IDB
F:\DEN GAMES\BANG BANG\DEBUG\ANIMAL.OBJ
F:\DEN GAMES\BANG BANG\DEBUG\TANK.OBJ
^F:\DEN GAMES\BANG BANG\SOURCE\APPLICATION.CPP|F:\DEN GAMES\BANG BANG\SOURCE\GAMEHUD.CPP|F:\DEN GAMES\BANG BANG\SOURCE\GAMESTATE.CPP|F:\DEN GAMES\BANG BANG\SOURCE\SOURCE.CPP|F:\DEN GAMES\BANG BANG\SOURCE\WORLD.CPP
F:\DEN GAMES\BANG BANG\DEBUG\VC120.PDB
F:\DEN GAMES\BANG BANG\DEBUG\VC120.IDB
F:\DEN GAMES\BANG BANG\DEBUG\GAMEHUD.OBJ
F:\DEN GAMES\BANG BANG\DEBUG\APPLICATION.OBJ
F:\DEN GAMES\BANG BANG\DEBUG\GAMESTATE.OBJ
F:\DEN GAMES\BANG BANG\DEBUG\SOURCE.OBJ
F:\DEN GAMES\BANG BANG\DEBUG\WORLD.OBJ
^F:\DEN GAMES\BANG BANG\SOURCE\ANIMAL.CPP|F:\DEN GAMES\BANG BANG\SOURCE\APPLICATION.CPP|F:\DEN GAMES\BANG BANG\SOURCE\GAMEHUD.CPP|F:\DEN GAMES\BANG BANG\SOURCE\GAMESTATE.CPP|F:\DEN GAMES\BANG BANG\SOURCE\OPPONENT.CPP|F:\DEN GAMES\BANG BANG\SOURCE\SOURCE.CPP|F:\DEN GAMES\BANG BANG\SOURCE\WORLD.CPP
F:\DEN GAMES\BANG BANG\DEBUG\VC120.PDB
F:\DEN GAMES\BANG BANG\DEBUG\VC120.IDB
F:\DEN GAMES\BANG BANG\DEBUG\ANIMAL.OBJ
F:\DEN GAMES\BANG BANG\DEBUG\APPLICATION.OBJ
F:\DEN GAMES\BANG BANG\DEBUG\GAMESTATE.OBJ
F:\DEN GAMES\BANG BANG\DEBUG\OPPONENT.OBJ
F:\DEN GAMES\BANG BANG\DEBUG\SOURCE.OBJ
F:\DEN GAMES\BANG BANG\DEBUG\WORLD.OBJ
F:\DEN GAMES\BANG BANG\DEBUG\GAMEHUD.OBJ
^F:\DEN GAMES\BANG BANG\SOURCE\APPLICATION.CPP|F:\DEN GAMES\BANG BANG\SOURCE\GUI.CPP|F:\DEN GAMES\BANG BANG\SOURCE\MENUSTATE.CPP|F:\DEN GAMES\BANG BANG\SOURCE\SOURCE.CPP
F:\DEN GAMES\BANG BANG\DEBUG\VC120.PDB
F:\DEN GAMES\BANG BANG\DEBUG\VC120.IDB
F:\DEN GAMES\BANG BANG\DEBUG\GUI.OBJ
F:\DEN GAMES\BANG BANG\DEBUG\APPLICATION.OBJ
F:\DEN GAMES\BANG BANG\DEBUG\SOURCE.OBJ
F:\DEN GAMES\BANG BANG\DEBUG\MENUSTATE.OBJ
^F:\DEN GAMES\BANG BANG\SOURCE\GUI.CPP|F:\DEN GAMES\BANG BANG\SOURCE\MENUSTATE.CPP
F:\DEN GAMES\BANG BANG\DEBUG\VC120.PDB
F:\DEN GAMES\BANG BANG\DEBUG\VC120.IDB
F:\DEN GAMES\BANG BANG\DEBUG\GUI.OBJ
F:\DEN GAMES\BANG BANG\DEBUG\MENUSTATE.OBJ
^F:\DEN GAMES\BANG BANG\SOURCE\APPLICATION.CPP|F:\DEN GAMES\BANG BANG\SOURCE\GUI.CPP
F:\DEN GAMES\BANG BANG\DEBUG\VC120.PDB
F:\DEN GAMES\BANG BANG\DEBUG\VC120.IDB
F:\DEN GAMES\BANG BANG\DEBUG\APPLICATION.OBJ
F:\DEN GAMES\BANG BANG\DEBUG\GUI.OBJ
^F:\DEN GAMES\BANG BANG\SOURCE\ANIMAL.CPP|F:\DEN GAMES\BANG BANG\SOURCE\APPLICATION.CPP|F:\DEN GAMES\BANG BANG\SOURCE\GAMEHUD.CPP|F:\DEN GAMES\BANG BANG\SOURCE\GAMESTATE.CPP|F:\DEN GAMES\BANG BANG\SOURCE\OPPONENT.CPP|F:\DEN GAMES\BANG BANG\SOURCE\PLAYER.CPP|F:\DEN GAMES\BANG BANG\SOURCE\POWERUP.CPP|F:\DEN GAMES\BANG BANG\SOURCE\SOURCE.CPP|F:\DEN GAMES\BANG BANG\SOURCE\TANK.CPP|F:\DEN GAMES\BANG BANG\SOURCE\TILE.CPP|F:\DEN GAMES\BANG BANG\SOURCE\WORLD.CPP
F:\DEN GAMES\BANG BANG\DEBUG\VC120.PDB
F:\DEN GAMES\BANG BANG\DEBUG\VC120.IDB
F:\DEN GAMES\BANG BANG\DEBUG\ANIMAL.OBJ
F:\DEN GAMES\BANG BANG\DEBUG\APPLICATION.OBJ
F:\DEN GAMES\BANG BANG\DEBUG\GAMEHUD.OBJ
F:\DEN GAMES\BANG BANG\DEBUG\GAMESTATE.OBJ
F:\DEN GAMES\BANG BANG\DEBUG\OPPONENT.OBJ
F:\DEN GAMES\BANG BANG\DEBUG\PLAYER.OBJ
F:\DEN GAMES\BANG BANG\DEBUG\POWERUP.OBJ
F:\DEN GAMES\BANG BANG\DEBUG\SOURCE.OBJ
F:\DEN GAMES\BANG BANG\DEBUG\TANK.OBJ
F:\DEN GAMES\BANG BANG\DEBUG\WORLD.OBJ
F:\DEN GAMES\BANG BANG\DEBUG\TILE.OBJ
^F:\DEN GAMES\BANG BANG\SOURCE\ANIMAL.CPP|F:\DEN GAMES\BANG BANG\SOURCE\APPLICATION.CPP|F:\DEN GAMES\BANG BANG\SOURCE\ENTITY.CPP|F:\DEN GAMES\BANG BANG\SOURCE\GAMEHUD.CPP|F:\DEN GAMES\BANG BANG\SOURCE\GAMESTATE.CPP|F:\DEN GAMES\BANG BANG\SOURCE\OPPONENT.CPP|F:\DEN GAMES\BANG BANG\SOURCE\PHYSICS.CPP|F:\DEN GAMES\BANG BANG\SOURCE\PLAYER.CPP|F:\DEN GAMES\BANG BANG\SOURCE\POWERUP.CPP|F:\DEN GAMES\BANG BANG\SOURCE\SOURCE.CPP|F:\DEN GAMES\BANG BANG\SOURCE\TANK.CPP|F:\DEN GAMES\BANG BANG\SOURCE\TILE.CPP|F:\DEN GAMES\BANG BANG\SOURCE\WORLD.CPP
F:\DEN GAMES\BANG BANG\DEBUG\VC120.PDB
F:\DEN GAMES\BANG BANG\DEBUG\VC120.IDB
F:\DEN GAMES\BANG BANG\DEBUG\PHYSICS.OBJ
F:\DEN GAMES\BANG BANG\DEBUG\PLAYER.OBJ
F:\DEN GAMES\BANG BANG\DEBUG\POWERUP.OBJ
F:\DEN GAMES\BANG BANG\DEBUG\SOURCE.OBJ
F:\DEN GAMES\BANG BANG\DEBUG\TANK.OBJ
F:\DEN GAMES\BANG BANG\DEBUG\TILE.OBJ
F:\DEN GAMES\BANG BANG\DEBUG\WORLD.OBJ
F:\DEN GAMES\BANG BANG\DEBUG\ANIMAL.OBJ
F:\DEN GAMES\BANG BANG\DEBUG\APPLICATION.OBJ
F:\DEN GAMES\BANG BANG\DEBUG\ENTITY.OBJ
F:\DEN GAMES\BANG BANG\DEBUG\GAMEHUD.OBJ
F:\DEN GAMES\BANG BANG\DEBUG\GAMESTATE.OBJ
F:\DEN GAMES\BANG BANG\DEBUG\OPPONENT.OBJ
^F:\DEN GAMES\BANG BANG\SOURCE\ANIMAL.CPP|F:\DEN GAMES\BANG BANG\SOURCE\APPLICATION.CPP|F:\DEN GAMES\BANG BANG\SOURCE\GAMEHUD.CPP|F:\DEN GAMES\BANG BANG\SOURCE\GAMESTATE.CPP|F:\DEN GAMES\BANG BANG\SOURCE\GUI.CPP|F:\DEN GAMES\BANG BANG\SOURCE\MENUSTATE.CPP|F:\DEN GAMES\BANG BANG\SOURCE\MUSICPLAYER.CPP|F:\DEN GAMES\BANG BANG\SOURCE\OPPONENT.CPP|F:\DEN GAMES\BANG BANG\SOURCE\PLAYER.CPP|F:\DEN GAMES\BANG BANG\SOURCE\POWERUP.CPP|F:\DEN GAMES\BANG BANG\SOURCE\SOURCE.CPP|F:\DEN GAMES\BANG BANG\SOURCE\TANK.CPP|F:\DEN GAMES\BANG BANG\SOURCE\TILE.CPP|F:\DEN GAMES\BANG BANG\SOURCE\WORLD.CPP
F:\DEN GAMES\BANG BANG\DEBUG\VC120.PDB
F:\DEN GAMES\BANG BANG\DEBUG\VC120.IDB
F:\DEN GAMES\BANG BANG\DEBUG\ANIMAL.OBJ
F:\DEN GAMES\BANG BANG\DEBUG\TANK.OBJ
F:\DEN GAMES\BANG BANG\DEBUG\TILE.OBJ
F:\DEN GAMES\BANG BANG\DEBUG\APPLICATION.OBJ
F:\DEN GAMES\BANG BANG\DEBUG\GAMEHUD.OBJ
F:\DEN GAMES\BANG BANG\DEBUG\GAMESTATE.OBJ
F:\DEN GAMES\BANG BANG\DEBUG\OPPONENT.OBJ
F:\DEN GAMES\BANG BANG\DEBUG\PLAYER.OBJ
F:\DEN GAMES\BANG BANG\DEBUG\POWERUP.OBJ
F:\DEN GAMES\BANG BANG\DEBUG\SOURCE.OBJ
F:\DEN GAMES\BANG BANG\DEBUG\WORLD.OBJ
^F:\DEN GAMES\BANG BANG\SOURCE\ANIMAL.CPP|F:\DEN GAMES\BANG BANG\SOURCE\APPLICATION.CPP|F:\DEN GAMES\BANG BANG\SOURCE\ENTITY.CPP|F:\DEN GAMES\BANG BANG\SOURCE\GAMESTATE.CPP|F:\DEN GAMES\BANG BANG\SOURCE\OPPONENT.CPP|F:\DEN GAMES\BANG BANG\SOURCE\SOURCE.CPP|F:\DEN GAMES\BANG BANG\SOURCE\WORLD.CPP
F:\DEN GAMES\BANG BANG\DEBUG\VC120.PDB
F:\DEN GAMES\BANG BANG\DEBUG\VC120.IDB
F:\DEN GAMES\BANG BANG\DEBUG\ANIMAL.OBJ
F:\DEN GAMES\BANG BANG\DEBUG\ENTITY.OBJ
F:\DEN GAMES\BANG BANG\DEBUG\APPLICATION.OBJ
F:\DEN GAMES\BANG BANG\DEBUG\GAMESTATE.OBJ
F:\DEN GAMES\BANG BANG\DEBUG\OPPONENT.OBJ
F:\DEN GAMES\BANG BANG\DEBUG\SOURCE.OBJ
^F:\DEN GAMES\BANG BANG\SOURCE\ANIMAL.CPP|F:\DEN GAMES\BANG BANG\SOURCE\APPLICATION.CPP|F:\DEN GAMES\BANG BANG\SOURCE\ENTITY.CPP|F:\DEN GAMES\BANG BANG\SOURCE\GAMEHUD.CPP|F:\DEN GAMES\BANG BANG\SOURCE\GAMESTATE.CPP|F:\DEN GAMES\BANG BANG\SOURCE\OPPONENT.CPP|F:\DEN GAMES\BANG BANG\SOURCE\PLAYER.CPP|F:\DEN GAMES\BANG BANG\SOURCE\POWERUP.CPP|F:\DEN GAMES\BANG BANG\SOURCE\SOURCE.CPP|F:\DEN GAMES\BANG BANG\SOURCE\TANK.CPP|F:\DEN GAMES\BANG BANG\SOURCE\TILE.CPP|F:\DEN GAMES\BANG BANG\SOURCE\WORLD.CPP
F:\DEN GAMES\BANG BANG\DEBUG\VC120.PDB
F:\DEN GAMES\BANG BANG\DEBUG\VC120.IDB
F:\DEN GAMES\BANG BANG\DEBUG\WORLD.OBJ
F:\DEN GAMES\BANG BANG\DEBUG\TANK.OBJ
F:\DEN GAMES\BANG BANG\DEBUG\TILE.OBJ
F:\DEN GAMES\BANG BANG\DEBUG\ANIMAL.OBJ
F:\DEN GAMES\BANG BANG\DEBUG\APPLICATION.OBJ
F:\DEN GAMES\BANG BANG\DEBUG\ENTITY.OBJ
F:\DEN GAMES\BANG BANG\DEBUG\GAMEHUD.OBJ
F:\DEN GAMES\BANG BANG\DEBUG\GAMESTATE.OBJ
F:\DEN GAMES\BANG BANG\DEBUG\OPPONENT.OBJ
F:\DEN GAMES\BANG BANG\DEBUG\PLAYER.OBJ
F:\DEN GAMES\BANG BANG\DEBUG\POWERUP.OBJ
F:\DEN GAMES\BANG BANG\DEBUG\SOURCE.OBJ
^F:\DEN GAMES\BANG BANG\SOURCE\PHYSICS.CPP|F:\DEN GAMES\BANG BANG\SOURCE\PLAYER.CPP|F:\DEN GAMES\BANG BANG\SOURCE\TANK.CPP
F:\DEN GAMES\BANG BANG\DEBUG\VC120.PDB
F:\DEN GAMES\BANG BANG\DEBUG\VC120.IDB
F:\DEN GAMES\BANG BANG\DEBUG\PHYSICS.OBJ
F:\DEN GAMES\BANG BANG\DEBUG\PLAYER.OBJ
F:\DEN GAMES\BANG BANG\DEBUG\TANK.OBJ
^F:\DEN GAMES\BANG BANG\SOURCE\ANIMAL.CPP|F:\DEN GAMES\BANG BANG\SOURCE\APPLICATION.CPP|F:\DEN GAMES\BANG BANG\SOURCE\COLLISION.CPP|F:\DEN GAMES\BANG BANG\SOURCE\ENTITY.CPP|F:\DEN GAMES\BANG BANG\SOURCE\GAMEHUD.CPP|F:\DEN GAMES\BANG BANG\SOURCE\GAMESTATE.CPP|F:\DEN GAMES\BANG BANG\SOURCE\OPPONENT.CPP|F:\DEN GAMES\BANG BANG\SOURCE\PHYSICS.CPP|F:\DEN GAMES\BANG BANG\SOURCE\PLAYER.CPP|F:\DEN GAMES\BANG BANG\SOURCE\POWERUP.CPP|F:\DEN GAMES\BANG BANG\SOURCE\SOURCE.CPP|F:\DEN GAMES\BANG BANG\SOURCE\TANK.CPP|F:\DEN GAMES\BANG BANG\SOURCE\TILE.CPP|F:\DEN GAMES\BANG BANG\SOURCE\WORLD.CPP
F:\DEN GAMES\BANG BANG\DEBUG\VC120.PDB
F:\DEN GAMES\BANG BANG\DEBUG\VC120.IDB
F:\DEN GAMES\BANG BANG\DEBUG\COLLISION.OBJ
F:\DEN GAMES\BANG BANG\DEBUG\PHYSICS.OBJ
F:\DEN GAMES\BANG BANG\DEBUG\TANK.OBJ
F:\DEN GAMES\BANG BANG\DEBUG\ANIMAL.OBJ
F:\DEN GAMES\BANG BANG\DEBUG\APPLICATION.OBJ
F:\DEN GAMES\BANG BANG\DEBUG\ENTITY.OBJ
F:\DEN GAMES\BANG BANG\DEBUG\GAMEHUD.OBJ
F:\DEN GAMES\BANG BANG\DEBUG\GAMESTATE.OBJ
F:\DEN GAMES\BANG BANG\DEBUG\OPPONENT.OBJ
F:\DEN GAMES\BANG BANG\DEBUG\PLAYER.OBJ
F:\DEN GAMES\BANG BANG\DEBUG\POWERUP.OBJ
F:\DEN GAMES\BANG BANG\DEBUG\SOURCE.OBJ
F:\DEN GAMES\BANG BANG\DEBUG\TILE.OBJ
F:\DEN GAMES\BANG BANG\DEBUG\WORLD.OBJ
^F:\DEN GAMES\BANG BANG\SOURCE\COLLISION.CPP
F:\DEN GAMES\BANG BANG\DEBUG\VC120.PDB
F:\DEN GAMES\BANG BANG\DEBUG\VC120.IDB
F:\DEN GAMES\BANG BANG\DEBUG\COLLISION.OBJ
^F:\DEN GAMES\BANG BANG\SOURCE\APPLICATION.CPP|F:\DEN GAMES\BANG BANG\SOURCE\GAMEHUD.CPP|F:\DEN GAMES\BANG BANG\SOURCE\GAMESTATE.CPP|F:\DEN GAMES\BANG BANG\SOURCE\PLAYER.CPP|F:\DEN GAMES\BANG BANG\SOURCE\POWERUP.CPP|F:\DEN GAMES\BANG BANG\SOURCE\SOURCE.CPP|F:\DEN GAMES\BANG BANG\SOURCE\TANK.CPP|F:\DEN GAMES\BANG BANG\SOURCE\WORLD.CPP
F:\DEN GAMES\BANG BANG\DEBUG\VC120.PDB
F:\DEN GAMES\BANG BANG\DEBUG\VC120.IDB
F:\DEN GAMES\BANG BANG\DEBUG\APPLICATION.OBJ
F:\DEN GAMES\BANG BANG\DEBUG\GAMEHUD.OBJ
F:\DEN GAMES\BANG BANG\DEBUG\GAMESTATE.OBJ
F:\DEN GAMES\BANG BANG\DEBUG\PLAYER.OBJ
F:\DEN GAMES\BANG BANG\DEBUG\POWERUP.OBJ
F:\DEN GAMES\BANG BANG\DEBUG\SOURCE.OBJ
F:\DEN GAMES\BANG BANG\DEBUG\WORLD.OBJ
^F:\DEN GAMES\BANG BANG\SOURCE\APPLICATION.CPP|F:\DEN GAMES\BANG BANG\SOURCE\COLLISION.CPP|F:\DEN GAMES\BANG BANG\SOURCE\GAMESTATE.CPP|F:\DEN GAMES\BANG BANG\SOURCE\PHYSICS.CPP|F:\DEN GAMES\BANG BANG\SOURCE\SOURCE.CPP|F:\DEN GAMES\BANG BANG\SOURCE\WORLD.CPP
F:\DEN GAMES\BANG BANG\DEBUG\VC120.PDB
F:\DEN GAMES\BANG BANG\DEBUG\VC120.IDB
F:\DEN GAMES\BANG BANG\DEBUG\APPLICATION.OBJ
F:\DEN GAMES\BANG BANG\DEBUG\COLLISION.OBJ
F:\DEN GAMES\BANG BANG\DEBUG\GAMESTATE.OBJ
F:\DEN GAMES\BANG BANG\DEBUG\PHYSICS.OBJ
F:\DEN GAMES\BANG BANG\DEBUG\SOURCE.OBJ
F:\DEN GAMES\BANG BANG\DEBUG\WORLD.OBJ
^F:\DEN GAMES\BANG BANG\SOURCE\COLLISION.CPP|F:\DEN GAMES\BANG BANG\SOURCE\WORLD.CPP
F:\DEN GAMES\BANG BANG\DEBUG\VC120.PDB
F:\DEN GAMES\BANG BANG\DEBUG\VC120.IDB
F:\DEN GAMES\BANG BANG\DEBUG\COLLISION.OBJ
F:\DEN GAMES\BANG BANG\DEBUG\WORLD.OBJ
^F:\DEN GAMES\BANG BANG\SOURCE\APPLICATION.CPP|F:\DEN GAMES\BANG BANG\SOURCE\WORLD.CPP
F:\DEN GAMES\BANG BANG\DEBUG\VC120.PDB
F:\DEN GAMES\BANG BANG\DEBUG\VC120.IDB
F:\DEN GAMES\BANG BANG\DEBUG\APPLICATION.OBJ
F:\DEN GAMES\BANG BANG\DEBUG\WORLD.OBJ
^F:\DEN GAMES\BANG BANG\SOURCE\ENTITY.CPP|F:\DEN GAMES\BANG BANG\SOURCE\TANK.CPP
F:\DEN GAMES\BANG BANG\DEBUG\VC120.PDB
F:\DEN GAMES\BANG BANG\DEBUG\VC120.IDB
F:\DEN GAMES\BANG BANG\DEBUG\ENTITY.OBJ
F:\DEN GAMES\BANG BANG\DEBUG\TANK.OBJ
^F:\DEN GAMES\BANG BANG\SOURCE\TILE.CPP|F:\DEN GAMES\BANG BANG\SOURCE\WORLD.CPP
F:\DEN GAMES\BANG BANG\DEBUG\VC120.PDB
F:\DEN GAMES\BANG BANG\DEBUG\VC120.IDB
F:\DEN GAMES\BANG BANG\DEBUG\TILE.OBJ
F:\DEN GAMES\BANG BANG\DEBUG\WORLD.OBJ
^F:\DEN GAMES\BANG BANG\SOURCE\APPLICATION.CPP|F:\DEN GAMES\BANG BANG\SOURCE\ENTITY.CPP|F:\DEN GAMES\BANG BANG\SOURCE\TILE.CPP
F:\DEN GAMES\BANG BANG\DEBUG\VC120.PDB
F:\DEN GAMES\BANG BANG\DEBUG\VC120.IDB
F:\DEN GAMES\BANG BANG\DEBUG\APPLICATION.OBJ
F:\DEN GAMES\BANG BANG\DEBUG\ENTITY.OBJ
F:\DEN GAMES\BANG BANG\DEBUG\TILE.OBJ
^F:\DEN GAMES\BANG BANG\SOURCE\ENTITY.CPP|F:\DEN GAMES\BANG BANG\SOURCE\WORLD.CPP
F:\DEN GAMES\BANG BANG\DEBUG\VC120.PDB
F:\DEN GAMES\BANG BANG\DEBUG\VC120.IDB
F:\DEN GAMES\BANG BANG\DEBUG\ENTITY.OBJ
F:\DEN GAMES\BANG BANG\DEBUG\WORLD.OBJ
^F:\DEN GAMES\BANG BANG\SOURCE\ANIMAL.CPP|F:\DEN GAMES\BANG BANG\SOURCE\APPLICATION.CPP|F:\DEN GAMES\BANG BANG\SOURCE\GAMESTATE.CPP|F:\DEN GAMES\BANG BANG\SOURCE\OPPONENT.CPP|F:\DEN GAMES\BANG BANG\SOURCE\POWERUP.CPP|F:\DEN GAMES\BANG BANG\SOURCE\SOURCE.CPP|F:\DEN GAMES\BANG BANG\SOURCE\TANK.CPP|F:\DEN GAMES\BANG BANG\SOURCE\TILE.CPP|F:\DEN GAMES\BANG BANG\SOURCE\WORLD.CPP
F:\DEN GAMES\BANG BANG\DEBUG\VC120.PDB
F:\DEN GAMES\BANG BANG\DEBUG\VC120.IDB
F:\DEN GAMES\BANG BANG\DEBUG\OPPONENT.OBJ
F:\DEN GAMES\BANG BANG\DEBUG\WORLD.OBJ
^F:\DEN GAMES\BANG BANG\SOURCE\ANIMAL.CPP|F:\DEN GAMES\BANG BANG\SOURCE\TANK.CPP|F:\DEN GAMES\BANG BANG\SOURCE\TILE.CPP
F:\DEN GAMES\BANG BANG\DEBUG\VC120.PDB
F:\DEN GAMES\BANG BANG\DEBUG\VC120.IDB
F:\DEN GAMES\BANG BANG\DEBUG\ANIMAL.OBJ
F:\DEN GAMES\BANG BANG\DEBUG\TANK.OBJ
F:\DEN GAMES\BANG BANG\DEBUG\TILE.OBJ
^F:\DEN GAMES\BANG BANG\SOURCE\ANIMAL.CPP|F:\DEN GAMES\BANG BANG\SOURCE\APPLICATION.CPP|F:\DEN GAMES\BANG BANG\SOURCE\GAMESTATE.CPP|F:\DEN GAMES\BANG BANG\SOURCE\OPPONENT.CPP|F:\DEN GAMES\BANG BANG\SOURCE\SOURCE.CPP|F:\DEN GAMES\BANG BANG\SOURCE\TILE.CPP|F:\DEN GAMES\BANG BANG\SOURCE\WORLD.CPP
F:\DEN GAMES\BANG BANG\DEBUG\VC120.PDB
F:\DEN GAMES\BANG BANG\DEBUG\VC120.IDB
F:\DEN GAMES\BANG BANG\DEBUG\ANIMAL.OBJ
F:\DEN GAMES\BANG BANG\DEBUG\APPLICATION.OBJ
F:\DEN GAMES\BANG BANG\DEBUG\GAMESTATE.OBJ
F:\DEN GAMES\BANG BANG\DEBUG\OPPONENT.OBJ
F:\DEN GAMES\BANG BANG\DEBUG\SOURCE.OBJ
F:\DEN GAMES\BANG BANG\DEBUG\TILE.OBJ
F:\DEN GAMES\BANG BANG\DEBUG\WORLD.OBJ
^F:\DEN GAMES\BANG BANG\SOURCE\PLAYER.CPP|F:\DEN GAMES\BANG BANG\SOURCE\TILE.CPP
F:\DEN GAMES\BANG BANG\DEBUG\VC120.PDB
F:\DEN GAMES\BANG BANG\DEBUG\VC120.IDB
F:\DEN GAMES\BANG BANG\DEBUG\PLAYER.OBJ
F:\DEN GAMES\BANG BANG\DEBUG\TILE.OBJ
^F:\DEN GAMES\BANG BANG\SOURCE\ANIMAL.CPP|F:\DEN GAMES\BANG BANG\SOURCE\APPLICATION.CPP|F:\DEN GAMES\BANG BANG\SOURCE\GAMEHUD.CPP|F:\DEN GAMES\BANG BANG\SOURCE\GAMESTATE.CPP|F:\DEN GAMES\BANG BANG\SOURCE\OPPONENT.CPP|F:\DEN GAMES\BANG BANG\SOURCE\PLATFORM.CPP|F:\DEN GAMES\BANG BANG\SOURCE\PLAYER.CPP|F:\DEN GAMES\BANG BANG\SOURCE\POWERUP.CPP|F:\DEN GAMES\BANG BANG\SOURCE\SOURCE.CPP|F:\DEN GAMES\BANG BANG\SOURCE\TANK.CPP|F:\DEN GAMES\BANG BANG\SOURCE\TILE.CPP|F:\DEN GAMES\BANG BANG\SOURCE\WORLD.CPP
F:\DEN GAMES\BANG BANG\DEBUG\VC120.PDB
F:\DEN GAMES\BANG BANG\DEBUG\VC120.IDB
F:\DEN GAMES\BANG BANG\DEBUG\PLATFORM.OBJ
F:\DEN GAMES\BANG BANG\DEBUG\TILE.OBJ
F:\DEN GAMES\BANG BANG\DEBUG\ANIMAL.OBJ
F:\DEN GAMES\BANG BANG\DEBUG\APPLICATION.OBJ
F:\DEN GAMES\BANG BANG\DEBUG\GAMEHUD.OBJ
F:\DEN GAMES\BANG BANG\DEBUG\GAMESTATE.OBJ
F:\DEN GAMES\BANG BANG\DEBUG\OPPONENT.OBJ
F:\DEN GAMES\BANG BANG\DEBUG\PLAYER.OBJ
F:\DEN GAMES\BANG BANG\DEBUG\SOURCE.OBJ
F:\DEN GAMES\BANG BANG\DEBUG\TANK.OBJ
F:\DEN GAMES\BANG BANG\DEBUG\POWERUP.OBJ
F:\DEN GAMES\BANG BANG\DEBUG\WORLD.OBJ
^F:\DEN GAMES\BANG BANG\SOURCE\PLATFORM.CPP
F:\DEN GAMES\BANG BANG\DEBUG\VC120.PDB
F:\DEN GAMES\BANG BANG\DEBUG\VC120.IDB
F:\DEN GAMES\BANG BANG\DEBUG\PLATFORM.OBJ
^F:\DEN GAMES\BANG BANG\SOURCE\POWERUP.CPP|F:\DEN GAMES\BANG BANG\SOURCE\WORLD.CPP
F:\DEN GAMES\BANG BANG\DEBUG\VC120.PDB
F:\DEN GAMES\BANG BANG\DEBUG\VC120.IDB
^F:\DEN GAMES\BANG BANG\SOURCE\APPLICATION.CPP|F:\DEN GAMES\BANG BANG\SOURCE\GAMESTATE.CPP|F:\DEN GAMES\BANG BANG\SOURCE\POWERUP.CPP|F:\DEN GAMES\BANG BANG\SOURCE\SOURCE.CPP|F:\DEN GAMES\BANG BANG\SOURCE\WORLD.CPP
F:\DEN GAMES\BANG BANG\DEBUG\VC120.PDB
F:\DEN GAMES\BANG BANG\DEBUG\VC120.IDB
F:\DEN GAMES\BANG BANG\DEBUG\WORLD.OBJ
F:\DEN GAMES\BANG BANG\DEBUG\APPLICATION.OBJ
F:\DEN GAMES\BANG BANG\DEBUG\GAMESTATE.OBJ
F:\DEN GAMES\BANG BANG\DEBUG\SOURCE.OBJ
^F:\DEN GAMES\BANG BANG\SOURCE\ANIMAL.CPP|F:\DEN GAMES\BANG BANG\SOURCE\APPLICATION.CPP|F:\DEN GAMES\BANG BANG\SOURCE\BLOCK.CPP|F:\DEN GAMES\BANG BANG\SOURCE\GAMEHUD.CPP|F:\DEN GAMES\BANG BANG\SOURCE\GAMESTATE.CPP|F:\DEN GAMES\BANG BANG\SOURCE\OPPONENT.CPP|F:\DEN GAMES\BANG BANG\SOURCE\PLATFORM.CPP|F:\DEN GAMES\BANG BANG\SOURCE\PLAYER.CPP|F:\DEN GAMES\BANG BANG\SOURCE\POWERUP.CPP|F:\DEN GAMES\BANG BANG\SOURCE\SOURCE.CPP|F:\DEN GAMES\BANG BANG\SOURCE\TANK.CPP|F:\DEN GAMES\BANG BANG\SOURCE\WORLD.CPP
F:\DEN GAMES\BANG BANG\DEBUG\VC120.PDB
F:\DEN GAMES\BANG BANG\DEBUG\VC120.IDB
F:\DEN GAMES\BANG BANG\DEBUG\PLATFORM.OBJ
F:\DEN GAMES\BANG BANG\DEBUG\BLOCK.OBJ
F:\DEN GAMES\BANG BANG\DEBUG\ANIMAL.OBJ
F:\DEN GAMES\BANG BANG\DEBUG\APPLICATION.OBJ
F:\DEN GAMES\BANG BANG\DEBUG\GAMEHUD.OBJ
F:\DEN GAMES\BANG BANG\DEBUG\GAMESTATE.OBJ
F:\DEN GAMES\BANG BANG\DEBUG\OPPONENT.OBJ
F:\DEN GAMES\BANG BANG\DEBUG\PLAYER.OBJ
F:\DEN GAMES\BANG BANG\DEBUG\POWERUP.OBJ
F:\DEN GAMES\BANG BANG\DEBUG\SOURCE.OBJ
F:\DEN GAMES\BANG BANG\DEBUG\TANK.OBJ
F:\DEN GAMES\BANG BANG\DEBUG\WORLD.OBJ
^F:\DEN GAMES\BANG BANG\SOURCE\BLOCK.CPP
F:\DEN GAMES\BANG BANG\DEBUG\VC120.PDB
^F:\DEN GAMES\BANG BANG\SOURCE\ANIMAL.CPP|F:\DEN GAMES\BANG BANG\SOURCE\APPLICATION.CPP|F:\DEN GAMES\BANG BANG\SOURCE\BLOCK.CPP|F:\DEN GAMES\BANG BANG\SOURCE\GAMEHUD.CPP|F:\DEN GAMES\BANG BANG\SOURCE\GAMESTATE.CPP|F:\DEN GAMES\BANG BANG\SOURCE\OPPONENT.CPP|F:\DEN GAMES\BANG BANG\SOURCE\PLAYER.CPP|F:\DEN GAMES\BANG BANG\SOURCE\POWERUP.CPP|F:\DEN GAMES\BANG BANG\SOURCE\SOURCE.CPP|F:\DEN GAMES\BANG BANG\SOURCE\TANK.CPP|F:\DEN GAMES\BANG BANG\SOURCE\WORLD.CPP
F:\DEN GAMES\BANG BANG\DEBUG\VC120.PDB
F:\DEN GAMES\BANG BANG\DEBUG\VC120.IDB
F:\DEN GAMES\BANG BANG\DEBUG\ANIMAL.OBJ
F:\DEN GAMES\BANG BANG\DEBUG\APPLICATION.OBJ
F:\DEN GAMES\BANG BANG\DEBUG\BLOCK.OBJ
F:\DEN GAMES\BANG BANG\DEBUG\GAMEHUD.OBJ
F:\DEN GAMES\BANG BANG\DEBUG\GAMESTATE.OBJ
F:\DEN GAMES\BANG BANG\DEBUG\OPPONENT.OBJ
F:\DEN GAMES\BANG BANG\DEBUG\PLAYER.OBJ
F:\DEN GAMES\BANG BANG\DEBUG\POWERUP.OBJ
F:\DEN GAMES\BANG BANG\DEBUG\SOURCE.OBJ
F:\DEN GAMES\BANG BANG\DEBUG\TANK.OBJ
F:\DEN GAMES\BANG BANG\DEBUG\WORLD.OBJ
^F:\DEN GAMES\BANG BANG\SOURCE\APPLICATION.CPP|F:\DEN GAMES\BANG BANG\SOURCE\BLOCK.CPP|F:\DEN GAMES\BANG BANG\SOURCE\GAMESTATE.CPP|F:\DEN GAMES\BANG BANG\SOURCE\PLATFORM.CPP|F:\DEN GAMES\BANG BANG\SOURCE\POWERUP.CPP|F:\DEN GAMES\BANG BANG\SOURCE\SOURCE.CPP|F:\DEN GAMES\BANG BANG\SOURCE\WORLD.CPP
F:\DEN GAMES\BANG BANG\DEBUG\VC120.PDB
F:\DEN GAMES\BANG BANG\DEBUG\VC120.IDB
F:\DEN GAMES\BANG BANG\DEBUG\PLATFORM.OBJ
F:\DEN GAMES\BANG BANG\DEBUG\WORLD.OBJ
^F:\DEN GAMES\BANG BANG\SOURCE\ANIMAL.CPP|F:\DEN GAMES\BANG BANG\SOURCE\PLATFORM.CPP
F:\DEN GAMES\BANG BANG\DEBUG\VC120.PDB
F:\DEN GAMES\BANG BANG\DEBUG\VC120.IDB
F:\DEN GAMES\BANG BANG\DEBUG\ANIMAL.OBJ
F:\DEN GAMES\BANG BANG\DEBUG\PLATFORM.OBJ
